<?xml version="1.0" encoding="UTF-8" standalone="no"?>
<!-- Created with Inkscape (http://www.inkscape.org/) -->

<svg
   version="1.1"
   id="svg1"
   width="64"
   height="48"
   viewBox="0 0 64 48"
   sodipodi:docname="dab.png"
   xmlns:inkscape="http://www.inkscape.org/namespaces/inkscape"
   xmlns:sodipodi="http://sodipodi.sourceforge.net/DTD/sodipodi-0.dtd"
   xmlns:xlink="http://www.w3.org/1999/xlink"
   xmlns="http://www.w3.org/2000/svg"
   xmlns:svg="http://www.w3.org/2000/svg">
  <defs
     id="defs1" />
  <sodipodi:namedview
     id="namedview1"
     pagecolor="#ffffff"
     bordercolor="#000000"
     borderopacity="0.25"
     inkscape:showpageshadow="2"
     inkscape:pageopacity="0.0"
     inkscape:pagecheckerboard="0"
     inkscape:deskcolor="#d1d1d1" />
  <g
     inkscape:groupmode="layer"
     inkscape:label="Image"
     id="g1">
    <image
       width="64"
       height="48"
       preserveAspectRatio="none"
       style="image-rendering:optimizeQuality"
       xlink:href="data:image/png;base64,iVBORw0KGgoAAAANSUhEUgAAAEAAAAAwCAYAAAChS3wfAAARG3pUWHRSYXcgcHJvZmlsZSB0eXBl&#10;IGV4aWYAAHjapZppluM4doX/YxVeAjE+YDkYz/EOvHx/F1RE5dRdXXYoQ1KQFAi84Q5Quv0//33c&#10;f/GTUnhcylZLK+XhJ7XUQudNfd6ffp/9k+7z/UmfU/z903EXv04EDumPz4FaPtd/HfffA7wvnXf5&#10;h4Hq/JwYP59on1uH+stAnxtFzSjwZn0Gap+BYnhP+M8A/V3WU1q1H5cw9vu6vlZS31+np7nv2I//&#10;3O3Xv5MRvZU5GEPYkcM8x/iZQNRvdLHzpvHsYwnv4c5F9R6vn5kQkD/F6funMaOzP6n4/aKfsvL9&#10;7pdsfSLD0n7JVgqfS+IvQS7fr3887nz+c1Zu6H+sn/p5F34+fvJz3hn9En39nrPquWtmFT0VQl0+&#10;i/pa4n3HdYNb6NbVMbXyGL+ZIew+Go9KVU9KYRGEwWP65gPpOj755bs/ft/X6SdTTGG7YLwJYYZ4&#10;D9ZooYVJxnxMevgTjKwu8hjivGlPMXzPxd/btme6e7fKnZfn0uAZzPORf/xw//QD5yjh3t9CfmPF&#10;vEJQsJmGMqdnLiMj/nyCmm+Avx6//iivkQxmRVkt0gjseIcY2f+FBPEmOnJh5vXtQW/rMwAh4taZ&#10;yfhIBsiaj9kX/1gI5j2BrCSoM/UQUxhkwOccFpMMKdJFFmrQrfmI+XtpyIHDjuOAGZnIsUQjN/Qd&#10;yUopUz+WKjXUc8wp51yy5Zpb7iWWVHIpxYpAsVu05CxbMbNqzXqNNdVcS7Vaa6u9hRYBzdxKs1Zb&#10;a71zz87InU93Luh9hBFHGtmNMmzU0UaflM9MM88ybdbZZl9hxQV+rLJs1dVW335TSjvtvMu2XXfb&#10;/VBqJ7qTTj7l2Kmnnf6dtU9af3v8g6z5T9bCzZQutO+scdTsawgvOMnKGQkLLnkybkoBBR2Us6d6&#10;+EWZU86eBvzFHJhkVs6WV8bIYNo+5OO/cufCm1Fl7v+VN2fpp7yF/2vmnFL3DzP3e97+lLXVLxDH&#10;myF1oYL6RLqP87v2ULvI7rdXd9+sfDZTOFw+h5FAi3rfTwZhZ06n9VpGyav5eWimM9LeMS+zHdss&#10;oZfhzr1X0Yx4l3rdde7Q8qDRemc1jY+kcUbc66xT9lrMzE87uc/TxzCgZfXhyvHDWO3YpTUbnpAP&#10;7rItLsKa2pOJdZ8Q5O45E+jFTzP+Fdsn8lEtZEen3m4xrVLnooxyyJZ8yvwLVMW/jsmfY/SffmDF&#10;3ls6J0RWc1ZohICo+dSKm6k2v888sc58WWLnsgarpghrtUlybRfWalZOZ555EtPS45qzUWaRRbJK&#10;l7lk7daGeV6ox7R8s5PKWYuErxNJY185Lar9nPEQxDM4N048k7uXyDz2cdnXHXpKLRLx2ueaDEi9&#10;7DI8OeyUYTwpHYZrpKv5EUuJp8abkaWERWrnICIWp3OeLYw8CX2NZQXS9yjgEHqpb+wlnf7Nq/u7&#10;C354LX2r1kqnDpivnkps/anGW/eY4KGyUBuamg/jAOBpBU+jnUIdDhpo+0oNqtopp8Y5ThBGVkHn&#10;ZRrD0ZSUbaPv5qC0GC82gkg1Ei+CsZqibY2PNe4092IM4pw7yWqARAx0wykOeGCMOU/J0wx4GEy1&#10;UzCbpz0XrWFrjREXiyElBHJZW3nPSf/VEsfwq1NHoBixpRtmGs1XplcXqFfOToX8j9sDhRI7xno1&#10;r3azbmOlE8Ae7j2LLVpk17FjpZOZFmVyelRp0MZeMRljc3vCOaktC53mC4WPzjcFpX9y4f7zpP2W&#10;xMqUWcth5NIc3ZLnhMCpvf60fXJdNDltVRdlC4rysnp+gEnamjz50UIe4QATQ0XpM3H0F4+etz4A&#10;h25K6RwksbwwF+fNox3Wg0qAb+gVCoMe6ZxS83LdHg5myMAHoN2kr2mKQrayCdEnIwKLY27g7JAh&#10;Su5kv6LtmTfFc4DI84VHSgBdmMGJFefRgwbei85Gpoyu3hxHrbjmAY47AQbo4qiwHezVyRUTdgsf&#10;JNJJ3LmCkiHVQ1fejuwtz5HWE2YjdUOEKGBW9Wgu+YLjU4So58YIZvJMCCDxjdWVnmCl0jY1BJJ4&#10;RuaKTHElAVXPdS91TuNkKaoywngH2porQYkJsm2sc/i2XriN+ekXH5+/eXW/nQC+QEVlr/dSaIC8&#10;fISdwluglUydvAkDgjr3No06pWucL33NQO1vUlM7YqsRzjpAOM4rEzlSJ1XRg5nSettnq30Um9Kr&#10;8HnQItMyxUU7U2f0kQYYt5dCmp7mJnD+glya4+mpeXoJBgXiOZXAI4QJMLLPLb+dLpVdsByzCVnP&#10;y3Hr3ljZAllA4AaZvQV86+d4Scg5Xcm8m5pNj3s/EEYvCNkOAlxEXkIjUm0IkrMD5DgPiW8JBo9U&#10;CNGcgExxOw71AG1U6P3RdurRwG+ziFhKUlurV0iFv8QYLJEeOO3Zpawl4piwD2pkoJVmEQ7jPDvV&#10;R+/2gond0Q5u9uBNaJQ3Y60eIR24UjQRqVCJAZATPLrUR2hmgxh3b3dBzN72Vh2goc7MQ4GCmKgJ&#10;FoVqGAcdcUN4bgiPu3Xd7EGoAFeEKnfiYTYQAcvUIejCCQwGKplDrBxNiBOja/enk1Bwy1Wh++5f&#10;eqH8LZwR9C16SQveraAJK5xWnTiBSaXMgrr0HJhcIhoIiOWiL1qmrI0mnINLyOHl+ZEg5A0vMXBB&#10;jZQ8bp0gkfKhtrJUVChXMSU8CxOgXcOD/GTOJdJLDe9JxZaZcpd0XDdGh6VqoGV8oG8oQfAGE85Z&#10;NMwKRN0ubi10eICN6lvpqMKHCliJmnc02VKTEU2cK7J2D5VPwQqQZpEnhS/wvciDTIv0E92I8IMw&#10;h1ATvCwSEZNqJteDX9bkOVUFktye5q+MUs5spHgsuoRzHk2/ExNMGxTNXI4gTGjIFj3FAKwvjbka&#10;U7D2ES/2V581bEiZ8MbCdcCelhHuBfj1HIpJ3B/DHBnyO1DTqSIYCpPQSt11swvihVaCvRLkE2h9&#10;4nc06Ll8uzsOkmbg3UaFqI9YPfnupJHyfSmKAhfkBig3UgN7PPQcRAdBwdSVlgbMDIJU2wAHon1J&#10;uDxRGvgKjx/aJDJueAOG5GYVPLtlu4f/ypvk2E4UJwOR2W6JSbde2tMGloHc5AgjN4ERRzfiWbAJ&#10;12OQUfCVXkcaabT4grQTWj8YspXxR3HS6etN9a2tK4WnNMohNPbqfp1F+mQLA3MRmE69BEntzy5p&#10;Ergp+HxAyNKgfDgeebaVPmwapTEury0w50lMkj7W8qoV5uSqplPQEJjlcdUcrowuqjkDvXQRc604&#10;hvOjY4DBQoPasycp4O6i15hsBUIFfocPB5/BBDDixA8QaHfh0/lhQs/lY4jySsgwEHgaOiI56TcJ&#10;0oAboYi7et9MHpa4kNCGVmhEu0gszHHvSDRuPDKsta9nMNRIguIXrCermW9nXVlqYpVrvR4aL8tw&#10;UelHBFLu9K+Y6Q3YWwBeB2pRw5RJBX6vNELoT9VDBpvRW1iFfT8pKB8dTmHeUKewcWQs81peNeLQ&#10;yTk88jHAfcyIWqktdIH0AwSHYvuh51EDHQEXCXH3IR0aF3VL8h73wCDJKDAp8IvAQ15i1xA7DDtm&#10;/7TlqmSMiOfS5iDNY+ALS0zzZVy3p8BPoobxcDyTbgGqqF7fEFL02kmtLcQlvpbAplYHok0AhgFo&#10;0MNawkIoO5f9sHTh0St4pl3F8xE83vugvu4Hp5HV/AMTbPWKCGkIcgXZOOacn3flap3HgyiHqVFd&#10;AiaD9dpQpS0pC4B/ZGbftIaIIK5UrjayMH4U7tvJvj8/tPTPrzBjWk3poId1qKNh1qYjCaIUx3RC&#10;J7HroR2glpxuywKvt6jAyyimvXoai5TyeJTQyWr7eAU0JVW9uYOVCPGpE4MNRC3y7SNZ7BUuQKUQ&#10;E24NKoOYFUn44LA0EDqTqzNyTgBXJyzSN+6ecrhVRoenMJ4EXGxY8/Ub9ZtnLYH/VtEWo8CgTJKu&#10;SMJoh6fLjQpRmjY8kfo2mGlcxT2kuJV3/CnVlS/86gykQ/MC6fPdv5jNhQYaonofhALITVjkwiVK&#10;UXSUVIRQwUjzIwXVdBUHIyWyTfyeOL1q+7A4ptpbJwo049LOgF0fDXzHt22LXAgBgXITkiaVrT5B&#10;51FTvn4yPpdL/3b3wc8lIdJvI5GHdwOCpkeDFdAzfYCZyr7ZJ8FyKGI3OmzKSeUHoTyGNhqYMNXC&#10;J3ClkmuoBElV1K0JTbTH8TyuvHYqgbMT1SOtSPhhJhlZgI2hYDOpZ7QgYkEpCboIvyxZjYZor4Wg&#10;ypBzKKSWebKGr7pSNc2osLAYBGwQYZCmW4jzQfWpFVHVTAeAp7PdkShFt6LojXKWpJRrShQk3Ufm&#10;GyGNRkCRQ1kiiYitQs1ktKJM8yv3Xe/YFwBrSgohxwBBsirTs5bcusT1D1hQBmBj3A50x3kRTa72&#10;WG+nhgJO0YFZEo8QRBmqfnqj6w1ahFMOOAafrKEdlfDuZb1GpBO22vGNzgNgQNToH3eEU6NARTL4&#10;oHmz68MWhny28u7rRr8gJbw24swSDOgK1ih0nBwIhS4XE90ag5Q+Q/8kGH59vRU2iZ/77DggXQy/&#10;p7qFqZMA+HujS2xR8YyB2BnajdC1r6yT9Jy14edE9h55u9KYSfuZHtFP38jWxxti1KeEebz7ZRGX&#10;3MDwhLPdk3hIMbF+YAR9lGXSuKrcfr97iXwWDmbJM10jjE2nphPSEWtAjnGBfT3oHkChahPHnQgy&#10;aytE22xQKWpTi0SOw479r43O1FExUnz+OqmBB4xppSDIALyWg0DqjHQHl2NJJPK3hkQC5Np6/4JT&#10;VE0HhzF5r3q6wnlpY1RI3KuT7tKpnL/uDeuuY6F4aW9Fj4aVA6gAOsVtN5fjJ/89wCMKBlFU8PWE&#10;H06saYlnDYhGvSFJJ+OnemQ3uQGS7jUBTXu1kOrIAxrBQd4lXQFlNiUclphS4pSwnqj9v3nghu0p&#10;bo2kOsykAVk92wdb6G5HFTT6soUfq/uPm7RqUelSutoIJWooav+nehRdzK4E8TX+9cvlYzgwTExN&#10;Oz3b5FxF/GpTyJUkANqsFIkFn0lXa0N9AWymrxZyMuRxaUVgqn1Ee/WWlWurP2YdvbAZi5Rh5/p3&#10;yuTx8SIVStHmw4jYrOWDqBLDLEVwW6riFeG5nbXjoho3Q7kgA7jqznNIs2+XYkVMoHQUBg/WCWV2&#10;0e1Q60g+OAY8pG+ugb3bR5BjqxNDGWnw3UuBVrDrMG+KIAWCiVnsfecBn0aMXR8v14bSfze58vc3&#10;FcPrexHWLGUfiMa4coqo36KV9xKDVRgBi2UfN4RE6JrF9oW73v0mOlV0hMFjrijSck3guyMbL438&#10;1Xz4NUzFZZwlN2Da2PiBRI4DT3ocQHm9Ell7nXAbrl9fqNAvqNubPopYZYA04AS1qbWTQxULnboW&#10;3S8FLtUIr3Bn2Ua8CzobDolDgMMyyWckAtz17pAfNbb22F6eRQ1qaZ998h6OtjJVcnR4QbGg9GU/&#10;pr6NvsJPLtAWKUOMjx28XWtwUX04FTXMp/2JG41DsRFNMBd/B5QPjPAtPcW+7kCaKD/0I9ROpgmx&#10;aU/luA6SduT0oMKfDXPhtoB+Fkst7ZfQ65A4uHaiZVsXbtaDSx9w/EWyE5y+/7ktz1T8VbIdjL7b&#10;/VABZV6TDBNU0fxibvjHKVUeHlU1YJMk5JN3yDttUbAGtIl/gAhtvyO1pp/gdQ6ooaPdrHa3bLtJ&#10;/D6gFh4NopCQus3ulgio69oLYHcfV1/2I9Qgl8TAU+b+uxrlKkHhAFLxScxjkmXCZV9k6Qne8mAN&#10;jXC/eKl3O4ZeWq0Pfb01DAvbSfcSZ+k/U/wvehtynOcN4RAAAAGFaUNDUElDQyBwcm9maWxlAAB4&#10;nH2RPUjDQBzFX1PFDyqKdhBxCNI6WRAVcdQqFKFCqBVadTC59AuaNCQpLo6Ca8HBj8Wqg4uzrg6u&#10;giD4AeLq4qToIiX+rym0iPHguB/v7j3u3gFCtcg0q20c0HTbTMSiYiq9Kna8ogt96EcYIzKzjDlJ&#10;isNzfN3Dx9e7CM/yPvfn6FEzFgN8IvEsM0ybeIN4etM2OO8TB1leVonPicdMuiDxI9cVl9845+os&#10;8MygmUzMEweJxVwLKy3M8qZGPEUcUjWd8oWUyyrnLc5ascwa9+QvDGT0lWWu0xxGDItYggQRCsoo&#10;oAgbEVp1UiwkaD/q4R+q+yVyKeQqgJFjASVokOt+8D/43a2VnZxwkwJRoP3FcT7CQMcuUKs4zvex&#10;49ROAP8zcKU3/aUqMPNJeqWphY6A3m3g4rqpKXvA5Q4w+GTIplyX/DSFbBZ4P6NvSgMDt0D3mttb&#10;Yx+nD0CSuorfAAeHwGiOstc93t3Z2tu/Zxr9/QCOmHKydhq+NQAAD8NpVFh0WE1MOmNvbS5hZG9i&#10;ZS54bXAAAAAAADw/eHBhY2tldCBiZWdpbj0i77u/IiBpZD0iVzVNME1wQ2VoaUh6cmVTek5UY3pr&#10;YzlkIj8+Cjx4OnhtcG1ldGEgeG1sbnM6eD0iYWRvYmU6bnM6bWV0YS8iIHg6eG1wdGs9IlhNUCBD&#10;b3JlIDQuNC4wLUV4aXYyIj4KIDxyZGY6UkRGIHhtbG5zOnJkZj0iaHR0cDovL3d3dy53My5vcmcv&#10;MTk5OS8wMi8yMi1yZGYtc3ludGF4LW5zIyI+CiAgPHJkZjpEZXNjcmlwdGlvbiByZGY6YWJvdXQ9&#10;IiIKICAgIHhtbG5zOnhtcE1NPSJodHRwOi8vbnMuYWRvYmUuY29tL3hhcC8xLjAvbW0vIgogICAg&#10;eG1sbnM6c3RFdnQ9Imh0dHA6Ly9ucy5hZG9iZS5jb20veGFwLzEuMC9zVHlwZS9SZXNvdXJjZUV2&#10;ZW50IyIKICAgIHhtbG5zOmRjPSJodHRwOi8vcHVybC5vcmcvZGMvZWxlbWVudHMvMS4xLyIKICAg&#10;IHhtbG5zOkdJTVA9Imh0dHA6Ly93d3cuZ2ltcC5vcmcveG1wLyIKICAgIHhtbG5zOnRpZmY9Imh0&#10;dHA6Ly9ucy5hZG9iZS5jb20vdGlmZi8xLjAvIgogICAgeG1sbnM6eG1wPSJodHRwOi8vbnMuYWRv&#10;YmUuY29tL3hhcC8xLjAvIgogICB4bXBNTTpEb2N1bWVudElEPSJnaW1wOmRvY2lkOmdpbXA6YTcw&#10;NzI5YWMtZmIyNi00M2RjLWFiNWUtNzA5NWVmYmMzMDgzIgogICB4bXBNTTpJbnN0YW5jZUlEPSJ4&#10;bXAuaWlkOjFlMjQwYTVhLTU5ZTEtNDQ0Zi1hODg3LTEyYmM0MGQ1ZDY5MyIKICAgeG1wTU06T3Jp&#10;Z2luYWxEb2N1bWVudElEPSJ4bXAuZGlkOjg1ODYxOGRmLWY4NTctNGFhNy05NDYzLWI2ZmZhYTc2&#10;YTU1MiIKICAgZGM6Rm9ybWF0PSJpbWFnZS9wbmciCiAgIEdJTVA6QVBJPSIyLjAiCiAgIEdJTVA6&#10;UGxhdGZvcm09IkxpbnV4IgogICBHSU1QOlRpbWVTdGFtcD0iMTY5NDg4OTQ4ODI5MTQ2NyIKICAg&#10;R0lNUDpWZXJzaW9uPSIyLjEwLjMwIgogICB0aWZmOk9yaWVudGF0aW9uPSIxIgogICB4bXA6Q3Jl&#10;YXRvclRvb2w9IkdJTVAgMi4xMCI+CiAgIDx4bXBNTTpIaXN0b3J5PgogICAgPHJkZjpTZXE+CiAg&#10;ICAgPHJkZjpsaQogICAgICBzdEV2dDphY3Rpb249InNhdmVkIgogICAgICBzdEV2dDpjaGFuZ2Vk&#10;PSIvIgogICAgICBzdEV2dDppbnN0YW5jZUlEPSJ4bXAuaWlkOmIyM2I4ZDMzLWEyNGUtNDgyNi1i&#10;ZGQ1LWVhMGE0YTM3NTYyMSIKICAgICAgc3RFdnQ6c29mdHdhcmVBZ2VudD0iR2ltcCAyLjEwIChM&#10;aW51eCkiCiAgICAgIHN0RXZ0OndoZW49IjIwMjMtMDktMTZUMjA6MjI6MTQrMDI6MDAiLz4KICAg&#10;ICA8cmRmOmxpCiAgICAgIHN0RXZ0OmFjdGlvbj0ic2F2ZWQiCiAgICAgIHN0RXZ0OmNoYW5nZWQ9&#10;Ii8iCiAgICAgIHN0RXZ0Omluc3RhbmNlSUQ9InhtcC5paWQ6YTAxZmUzZTYtZmY4Yi00NWQ1LTkx&#10;MzQtNjRlYTAxM2JjMmVjIgogICAgICBzdEV2dDpzb2Z0d2FyZUFnZW50PSJHaW1wIDIuMTAgKExp&#10;bnV4KSIKICAgICAgc3RFdnQ6d2hlbj0iMjAyMy0wOS0xNlQyMDozMDozNiswMjowMCIvPgogICAg&#10;IDxyZGY6bGkKICAgICAgc3RFdnQ6YWN0aW9uPSJzYXZlZCIKICAgICAgc3RFdnQ6Y2hhbmdlZD0i&#10;LyIKICAgICAgc3RFdnQ6aW5zdGFuY2VJRD0ieG1wLmlpZDplM2UzM2EyYS0yYjY0LTRkNzgtYjM1&#10;NS0yZGUzZGU4ODRmNDUiCiAgICAgIHN0RXZ0OnNvZnR3YXJlQWdlbnQ9IkdpbXAgMi4xMCAoTGlu&#10;dXgpIgogICAgICBzdEV2dDp3aGVuPSIyMDIzLTA5LTE2VDIwOjM1OjA4KzAyOjAwIi8+CiAgICAg&#10;PHJkZjpsaQogICAgICBzdEV2dDphY3Rpb249InNhdmVkIgogICAgICBzdEV2dDpjaGFuZ2VkPSIv&#10;IgogICAgICBzdEV2dDppbnN0YW5jZUlEPSJ4bXAuaWlkOjk0NDIwNmNhLWUyN2UtNDEzZS1hNDU5&#10;LTI4NGQwMDQ1MTE0MiIKICAgICAgc3RFdnQ6c29mdHdhcmVBZ2VudD0iR2ltcCAyLjEwIChMaW51&#10;eCkiCiAgICAgIHN0RXZ0OndoZW49IjIwMjMtMDktMTZUMjA6Mzg6MDgrMDI6MDAiLz4KICAgIDwv&#10;cmRmOlNlcT4KICAgPC94bXBNTTpIaXN0b3J5PgogIDwvcmRmOkRlc2NyaXB0aW9uPgogPC9yZGY6&#10;UkRGPgo8L3g6eG1wbWV0YT4KICAgICAgICAgICAgICAgICAgICAgICAgICAgICAgICAgICAgICAg&#10;ICAgICAgICAgICAgICAgICAgICAgICAgICAgICAgICAgICAgICAgICAgICAgICAgICAgICAgICAg&#10;ICAgIAogICAgICAgICAgICAgICAgICAgICAgICAgICAgICAgICAgICAgICAgICAgICAgICAgICAg&#10;ICAgICAgICAgICAgICAgICAgICAgICAgICAgICAgICAgICAgICAgICAgICAgICAgCiAgICAgICAg&#10;ICAgICAgICAgICAgICAgICAgICAgICAgICAgICAgICAgICAgICAgICAgICAgICAgICAgICAgICAg&#10;ICAgICAgICAgICAgICAgICAgICAgICAgICAgICAgICAgICAKICAgICAgICAgICAgICAgICAgICAg&#10;ICAgICAgICAgICAgICAgICAgICAgICAgICAgICAgICAgICAgICAgICAgICAgICAgICAgICAgICAg&#10;ICAgICAgICAgICAgICAgICAgICAgIAogICAgICAgICAgICAgICAgICAgICAgICAgICAgICAgICAg&#10;ICAgICAgICAgICAgICAgICAgICAgICAgICAgICAgICAgICAgICAgICAgICAgICAgICAgICAgICAg&#10;ICAgICAgICAgCiAgICAgICAgICAgICAgICAgICAgICAgICAgICAgICAgICAgICAgICAgICAgICAg&#10;ICAgICAgICAgICAgICAgICAgICAgICAgICAgICAgICAgICAgICAgICAgICAgICAgICAgICAKICAg&#10;ICAgICAgICAgICAgICAgICAgICAgICAgICAgICAgICAgICAgICAgICAgICAgICAgICAgICAgICAg&#10;ICAgICAgICAgICAgICAgICAgICAgICAgICAgICAgICAgICAgICAgIAogICAgICAgICAgICAgICAg&#10;ICAgICAgICAgICAgICAgICAgICAgICAgICAgICAgICAgICAgICAgICAgICAgICAgICAgICAgICAg&#10;ICAgICAgICAgICAgICAgICAgICAgICAgICAgCiAgICAgICAgICAgICAgICAgICAgICAgICAgICAg&#10;ICAgICAgICAgICAgICAgICAgICAgICAgICAgICAgICAgICAgICAgICAgICAgICAgICAgICAgICAg&#10;ICAgICAgICAgICAgICAKICAgICAgICAgICAgICAgICAgICAgICAgICAgICAgICAgICAgICAgICAg&#10;ICAgICAgICAgICAgICAgICAgICAgICAgICAgICAgICAgICAgICAgICAgICAgICAgICAgICAgICAg&#10;IAogICAgICAgICAgICAgICAgICAgICAgICAgICAgICAgICAgICAgICAgICAgICAgICAgICAgICAg&#10;ICAgICAgICAgICAgICAgICAgICAgICAgICAgICAgICAgICAgICAgICAgICAgCiAgICAgICAgICAg&#10;ICAgICAgICAgICAgICAgICAgICAgICAgICAgICAgICAgICAgICAgICAgICAgICAgICAgICAgICAg&#10;ICAgICAgICAgICAgICAgICAgICAgICAgICAgICAgICAKICAgICAgICAgICAgICAgICAgICAgICAg&#10;ICAgICAgICAgICAgICAgICAgICAgICAgICAgICAgICAgICAgICAgICAgICAgICAgICAgICAgICAg&#10;ICAgICAgICAgICAgICAgICAgIAogICAgICAgICAgICAgICAgICAgICAgICAgICAgICAgICAgICAg&#10;ICAgICAgICAgICAgICAgICAgICAgICAgICAgICAgICAgICAgICAgICAgICAgICAgICAgICAgICAg&#10;ICAgICAgCiAgICAgICAgICAgICAgICAgICAgICAgICAgICAgICAgICAgICAgICAgICAgICAgICAg&#10;ICAgICAgICAgICAgICAgICAgICAgICAgICAgICAgICAgICAgICAgICAgICAgICAgICAKICAgICAg&#10;ICAgICAgICAgICAgICAgICAgICAgICAgICAgICAgICAgICAgICAgICAgICAgICAgICAgICAgICAg&#10;ICAgICAgICAgICAgICAgICAgICAgICAgICAgICAgICAgICAgIAogICAgICAgICAgICAgICAgICAg&#10;ICAgICAgICAgICAgICAgICAgICAgICAgICAgICAgICAgICAgICAgICAgICAgICAgICAgICAgICAg&#10;ICAgICAgICAgICAgICAgICAgICAgICAgCiAgICAgICAgICAgICAgICAgICAgICAgICAgICAgICAg&#10;ICAgICAgICAgICAgICAgICAgICAgICAgICAgICAgICAgICAgICAgICAgICAgICAgICAgICAgICAg&#10;ICAgICAgICAgICAKICAgICAgICAgICAgICAgICAgICAgICAgICAgICAgICAgICAgICAgICAgICAg&#10;ICAgICAgICAgICAgICAgICAgICAgICAgICAgICAgICAgICAgICAgICAgICAgICAgICAgICAgIAog&#10;ICAgICAgICAgICAgICAgICAgICAgICAgICAgICAgICAgICAgICAgICAgICAgICAgICAgICAgICAg&#10;ICAgICAgICAgICAgICAgICAgICAgICAgICAgICAgICAgICAgICAgICAgCiAgICAgICAgICAgICAg&#10;ICAgICAgICAgICAgIAo8P3hwYWNrZXQgZW5kPSJ3Ij8+/vDPxAAAAAZiS0dEAP8A/wD/oL2nkwAA&#10;AAlwSFlzAAAOwwAADsMBx2+oZAAAAAd0SU1FB+cJEBImCEg7yHwAAA6aSURBVGje3Zp5jN3Vdcc/&#10;5/7evsy8N/Nm93gb29gGs4PBmOCYTZC0ykIIhB0ktkAkVHVvpaQVapVKUaLShmxqAqRNIkiVNEbU&#10;oZhgTAwEG2y8YryO7dln3r78fr97+sd72B4vBMyw3n/fve/e+73nfM/3nPODqRzJVJDmTIiP0XCm&#10;7J8SqbmouRNlGeFYiOlzBxgbdD/qAMiU/Et7V4BS7WEwl6EAOg66loD5LrO6NvHqBv+TbQHReCue&#10;/VtUwoCCRIA+fHs1o9mgRGNDwdmdeTsyoZ9MANKtLZTdW0ECiK0hOgISR0wUkcUoi22paujs7Gdi&#10;ovzJA6Ap3UyldhNICIe10hL9G1x3HF/nABFE2vBZTKl2LsFIYdbCtr0Tg1n/kwNA1W/CODeDhDBs&#10;wPBTWTBtDSPZ9VjbgphWxCRApoEsz2WrXSYWG4q0xie8fMn/+APQ1pGi6tYtQNiG669kx06Xarmf&#10;RPsqjN2N+m1AOyIRVVmklkt8V5uktXWAfG7i4w1Ae0eKQvnGhgVsxZiVVBsvW8nW6Jn2Bl51NZ7t&#10;B52HShKRJCpnUXWXEIyGSGS2U8m5H08AYk2pBgcEMWxDOAwAwPioUi7myTRtRFiFbyMgHSBJkAyw&#10;FL92lgQjw05LdEyLldrHD4CaWwcA3YbqStzysb5dKCrl0rhp71ytNfd1VOOgPYgJI2Y6sBwrPcTi&#10;I/R0DjM+rh8PAFLpNJXajSBBRLci8ltqZZ+WzggmeAt9s/bIlZ+usHEzAJqf8KmV9hJPrEHtFmAm&#10;SisiUdQswNeLyVfaTXN62xe/0l3evG70Iw5AMJ7G825okOBWhDoA8+ZFGMt9h3zhCrbvzkosOkKl&#10;XDm0rlKsYCI7SAafwuJh6UCkGaQZkbPU85a98UYpZ5riIy2fubJS2rT1IwpAc0uaasMCHDZj5Gmq&#10;JZ+Zs0IMjd6Gmlkoy1CZRzSepTU1QD5fdxGvAsVimc/f9SJ7tryM9QTVaYiJg2Ssp8vU1/nl3f05&#10;FpwzwMBe7yNoAZE01r8RkSCwBbRuAYmuCLnx2xqKMAjSh9WlVN3Zod6WHfHTm3LVPfm6n7++VikX&#10;hkgmXwTWo9qK0g0SBpmFp0sZH51DLLZb0qlxCnn96AAQireA3tCIApuRhgW0pkLkCl8GmpG38i6J&#10;o7LQL7hXVA96LtH4kPQtKDJ8sP5zuehSLe2jK/2/1LxRVDtAUnUhpQuw9goqrkosOpQ6Y1ahsn9E&#10;PwIukEpRc+suAFsQ6gAkmn3c6gSq7UAbiKljIIKYJuBilDPJ52okEwcoFw+Hv2zeo1p+jabU83h+&#10;EbQHpRlxEogswcq51WzJpym1n2K+8iErwUyYYvUmkDCiW1Ceplb2yY5pYOG8bTY38TzGDODrAkTi&#10;R2TjBqQHtUvw7CJiif0y/6xhBvfZQ1PKhSzJpnWorkXUovQ13KITnwtxvbMlHBkP9HT224kJ+6EA&#10;4Mya6epo7nIwnaBFMP+DW6oB2IEBpVLJMWf2FgrlQVQvAjmqatTwc6tXMzEaIxwfCna152y2caFy&#10;0adWGpKFXc9TdLfjkUFoQSQB9KJyqS1WWiQaHTr1ltbs8Ct5+4ECMOdzn7Jjr+8G1Xkgv8OEXqaW&#10;P2zOseYZTBRuRbkdpIXDhHAkCAISRjkPtRdq1Q0Sb+qnXCgemjIw7lMuvUkq9SxubQDoBMkgJoLI&#10;WagsHdniRaSt4wC5ifwHVxECSGTieH6vhGK7Nbe/7pPpvgjV8WsQ+QrInAZHHD1s4xxHnEUBKqCb&#10;cfQRAomnGNtbnSy+Mg6u7UX5E4Q7wDTVQbQ1YCvWPkoy+muGDtQ+GACOHC2ZKBXvdDB3gnwKkcBx&#10;trJAP8KTWBsBLkdM9zFAqFaAJwk5j6HuFrLjkwkv2WJQFqLmXuBCkFR9qXrgr8Lww2DabHT3jZbf&#10;36IowOzTBdedh+UeMA8g5lTEmKMuL6BZgubX0hz/JtHYf+OXt2OZDnLKoUjx1lSRALAQq8uwpEk2&#10;H5QrPjPBtk31KbWyUisP0db9LF5pB0oK1U7EhBDpQ2WZutpOMjlI95wxxgZ1yi3ANLeJNYEkteoN&#10;qLkGYQbI8cD1MPZlCQa/l1o0fV05McOtPPPbq3ACt6DMr5PhJD846nzqAbsw9nHaIj9l54Hisa6Y&#10;bseyHMw9iPQ2+Maidg+ivwrFo4/e+TV//KG/G9ApAcBJtSWszzlq9W6Q8wFz7Cz1QHeLI49PP635&#10;sdKg9UZGCvPVtzeBfLZRTD3SOwYxsgGrM0BmHcsd1gd9RYx52InyB29oZBLhGXrFdro9FL17sLoc&#10;TEfD8iyir0ZifEv7Zqyt/n6df/IukJju4LBILfeD3Acy7wQzPQLOr7t7A9/I9w+tzI5Jd6no3obl&#10;z8Fc0DDxxmPYMkafMVH+JXP6zB+WC+XXqHqngXQeRV0GzDRUl6tlukRTo8zoGmZ0zNZNJweFQq6t&#10;Y97qUi33GmgU1W7ERIBuz+U8f6KwmXKx/90DkOwSnGAbuPci5gHEuaBRBj+xJFW/5on3htXwRWrN&#10;X4JcCdJ8xBqL2K2BhPknE+Q/UufN2Dnywq4LcbkPZeEJokddP6jMx/oXky92EY1ulxvOLbF+rwKU&#10;cgOWank/8fgLRJ1N1Gw3YurS2tcI4fiad+cC0eYUTnAJ1t6FmNMmE9YkTjkKDK27gYpBjlyjFvQA&#10;AedJwuHvm1RT1vYfnA1yDcJ1iNOEWn1nnqoK+iZBviuOWR1YsGDEff65w+c490Jhx85uXO/fQM5A&#10;9YAJc+s7A6A5HaCm5yDmFkQuAYmD6CS3Q7MisgGsVZVFdcHD2ygyLYvRFSYeesx84bMb3Ud/mcH3&#10;/xQx14Hpa5DXu010BLSK6FrEPBpIJtd4B3ZODn/xlgdRcz1CqTnEXYE/QnFCurWbmncPxlwG0n7s&#10;wdRHWOPEzA9FZaOteqqEFmLt7aheDHL8PRSXoOyI9aZ25n/yxJUgtyOB0xruxElcvrFGQqh8CrWn&#10;eRMTa0ws/fC1t7Zv/dm/b2s8hrqNABMoO8HoiS0gnMwggU9jzL2ImXGckOSD7hKRJ4gEfqnVmuL5&#10;AXGM63TG8h7xIENj12L1S6jMOT4QtgrsA+k9KgRO0VBF7YFgJnKXu/dAXTjE099AzU2IuKjef+yh&#10;4ukIKktQbkJkCWLCR724oDpkAvqbWDzyc79onHKldAfK6YhpViXnD5c3I7VfydIzfqxvvrGKgdI1&#10;uPZziHRPxtGEgbkn+donlCVvkU4jv0i5YSd+AofRQwCEU2mpqszG56tgLkGk5RhTVLWI/h+O+UG8&#10;iY21mu2o2upDYBY2VKUCoh7no3q+/m7TX1Ac2Exv73coVp6mav8e5OyjLjyFl1cf1U1A8ggRpIj/&#10;tmg1ulu04uqPUPP5BoEdO1d4pb2v5a+u/96yP+T7hyvVUDgDMgMVB0Tr+0kDeXoJ+RlOmSuMZoWy&#10;C/o+5R51obXdhMyDTb0d1xJxbkHsz8EO1QEOHAbZqhzxoHpYB4Rj0QbDd51AxgIki9ly8vWVuw60&#10;nd89Vkp05xkcjqLSC0QBB8GCjhNgRSBhfmMHc21g7kDMnyFm7hTnXwJ2yBh+lgpFv3n/A8uefebx&#10;VTXKxQkSzc9h5DXUBqNJb503Whpq1C+XI87pjXM+Ofk0rZlualyN1TsanRs5rpmhu8XYJwKdycfc&#10;/SWfkMyVkMzEDSQCni35kfA+ksGDdiR7JZ69BpG5J4wGJ89vVRyzMhSzPwn5ZlNhZOi4ZTGnZ1qy&#10;N1Wr7d40VE+nY+l/BOcGhBpq75v80uVSXpaesp59o6sRSYG0gUSPlaHSgpULbKF2AY4eBN0U+tHd&#10;r8vsJRv937+wV9WbprnSA1huBOmYLH7e64tTQ3QzEedfJR5+KNGV3pd/c49HMhUjGOuTzrQllz8U&#10;+zWfq00MFw+TQDB6KcgiRHzQFSe2x56uCAV7EZ53MyqLkePJXRXQHOjThAJPYn0PXy9H5SowrXWl&#10;N1Umr4LqXgnwBOnw47rnwP66Ok0ZQqF5+N51qFyOkS1EeZSQs5b+weqxbbyWB8Fc37CAr544F8gX&#10;PFm8fDfZwdX4/k7UzgLSCHL4UtKo55n5+HoJlivBnAMm1ghDU3X5KkZ+QSD4z5Fm5ylv78HD7fTp&#10;6SBF72YsN6EmDczC1Yup+HOdTHynLl08zo7dR/YwLgWzCMEHVrx9MrRnO5QKJUlN3yLiP4PvOQid&#10;dSk86XZSV3ASOT5vnPTFK4Kud4LmQeZO/zG7th/0coXJ8nq84NPZ/hpVfxClox6+pQnkFK3o5ewb&#10;gFh0iPl9BQaGIBi9DOQ0xPigK95ZNlgchUohRyKzhpBZj+9FgZ73R701FJzITgnxg0ws8q3CyMBG&#10;Dh48cTDPZl1qpY00xZ7D13oPAWmu9x7kInw9i/GCJ01tB/DcSxBzKogHsuLkXqu1vYmKvxj0bjBn&#10;HicrfA/SlRIO/0Uo9ItwT2JXdcP2d9cLbG4P4vlzUb0ekS811CagBYRNqPaC6a4XXbn35Aoi5WKV&#10;cGwX8dhK1K+gdII2vTfz1yKiL0nEfH3O2ef/fGzzuhF/cPRdNzqoFi1ueVgWnb2a8sRreH4HkGlk&#10;sNPqH2U0kiLV37x3f12y2LC9fz7lyvXA1XX2f8fyVurZpGyJJux/ZtKhp/ZtOTg2pd6U6WqhXLkK&#10;zHUgpx62VjssIXPHe68K79uvlPLDxOMvoroONIMy7Y/HflXQUaLO99Op9Lf/4a9jL/ziJ3tKU04n&#10;pUKZYHQTEWcNAUbwbS+Kj3EecaLxp6dem3fPjJAtfAnhepQTNEM0h9GXJGQezpx7xqvzPvN1u+Zr&#10;S9/3z2HMpcuNfWlDhHRTyBRa83bsZV/et916umdSrH2Rmn4BkZ5G4lUBNhA2jyTbw6vyW/fl+ZCH&#10;vK+If/mysHlmwzy1/pk+wWas7sWzr9A37SCvrn93BBcLBcAE8BvJpjHg++A44HkQdMCz4BjwG902&#10;x9Qr6AEHai4EAmD1UIUcgf8HiEmRPJrb7PcAAAAASUVORK5CYII=&#10;"
       id="image1" />
  </g>
</svg>
